{
    "date" : "2022-06-23",
    "author" : "jorge diaz jr",
    "tags" : [],
    "reading-time" : 0,
    "title" : "verse-of-the-day",
    "content" : [
        [
            "html-element" : "h4",
            "text" : "proverbs 21:31"
        ],
        [
            "html-element" : "h6",
            "text" : "31 The horse is prepared for the day of battle, But victory belongs to the Lord."
        ],
        [
            "html-element" : "p",
            "text" : "We can get ready for battle. Have our horses healthy. Well fed. That way they are strong in the battle. But at the end of the day. It is not our preparing the horses for battle that brings victory. It is the Lord who goes before us, behind us, surrounds us, and works providentially to bring us victory. But the victory, is His. Because without Him, the hours of preparing horses for battle are in vain. We depend on God for victory. We depend on God for living past our battles in triumph. Glory in the Lord alone!"
        ],
        [
            "html-element" : "p",
            "text" : "Reasons the victory belongs to the Lord: 1) To give him glory 2) He is all-powerful 3) He is sovereign 4) He accomplishes His purpose"
        ],
        [
            "html-element" : "h4",
            "text" : "1 Timothy 4:8"
        ],
        [
            "html-element" : "h6",
            "text" : "For while bodily training is of some value, godliness is of value in every way, as it holds promise for the present life and also for the life to come."
        ],
        [
            "html-element" : "p",
            "text" : "There is SOME value in bodily training. Staying physically fit is not a sin."
        ]
    ],
    "references" : [
    ]
}
